measurements/D1002969_transimpedence/259/time_in_259_signal_generator_1MHz.CSV

Record Length,2.500000e+03,,  -0.000006400000,   0.92000,
Sample Interval,4.000000e-09,,  -0.000006396000,   0.92000,
Trigger Point,1.600000000000e+03,,  -0.000006392000,   0.92000,
,,,  -0.000006388000,   1.00000,
,,,  -0.000006384000,   1.04000,
,,,  -0.000006380000,   1.08000,
Source,CH1,,  -0.000006376000,   1.08000,
Vertical Units,V,,  -0.000006372000,   1.08000,
Vertical Scale,1.000000e+00,,  -0.000006368000,   1.12000,
Vertical Offset,0.000000e+00,,  -0.000006364000,   1.12000,
Horizontal Units,s,,  -0.000006360000,   1.12000,
Horizontal Scale,1.000000e-06,,  -0.000006356000,   1.16000,
Pt Fmt,Y,,  -0.000006352000,   1.20000,
Yzero,0.000000e+00,,  -0.000006348000,   1.20000,
Probe Atten,1.000000e+00,,  -0.000006344000,   1.28000,
Model Number,TBS1154,,  -0.000006340000,   1.24000,
Serial Number,C020573,,  -0.000006336000,   1.24000,
Firmware Version,FV:v26.05,,  -0.000006332000,   1.24000,
,,,-00.000006328000,   1.28000,
,,,-00.000006324000,   1.32000,
,,,-00.000006320000,   1.32000,
,,,-00.000006316000,   1.32000,
,,,-00.000006312000,   1.32000,
,,,-00.000006308000,   1.36000,
,,,-00.000006304000,   1.40000,
,,,-00.000006300000,   1.36000,
,,,-00.000006296000,   1.40000,
,,,-00.000006292000,   1.40000,
,,,-00.000006288000,   1.36000,
,,,-00.000006284000,   1.36000,
,,,-00.000006280000,   1.44000,
,,,-00.000006276000,   1.40000,
,,,-00.000006272000,   1.48000,
,,,-00.000006268000,   1.36000,
,,,-00.000006264000,   1.48000,
,,,-00.000006260000,   1.40000,
,,,-00.000006256000,   1.44000,
,,,-00.000006252000,   1.44000,
,,,-00.000006248000,   1.48000,
,,,-00.000006244000,   1.44000,
,,,-00.000006240000,   1.44000,
,,,-00.000006236000,   1.44000,
,,,-00.000006232000,   1.40000,
,,,-00.000006228000,   1.44000,
,,,-00.000006224000,   1.40000,
,,,-00.000006220000,   1.44000,
,,,-00.000006216000,   1.44000,
,,,-00.000006212000,   1.40000,
,,,-00.000006208000,   1.36000,
,,,-00.000006204000,   1.40000,
,,,-00.000006200000,   1.40000,
,,,-00.000006196000,   1.36000,
,,,-00.000006192000,   1.36000,
,,,-00.000006188000,   1.32000,
,,,-00.000006184000,   1.32000,
,,,-00.000006180000,   1.28000,
,,,-00.000006176000,   1.28000,
,,,-00.000006172000,   1.24000,
,,,-00.000006168000,   1.24000,
,,,-00.000006164000,   1.24000,
,,,-00.000006160000,   1.20000,
,,,-00.000006156000,   1.16000,
,,,-00.000006152000,   1.16000,
,,,-00.000006148000,   1.16000,
,,,-00.000006144000,   1.12000,
,,,-00.000006140000,   1.12000,
,,,-00.000006136000,   1.08000,
,,,-00.000006132000,   1.08000,
,,,-00.000006128000,   1.04000,
,,,-00.000006124000,   1.04000,
,,,-00.000006120000,   1.04000,
,,,-00.000006116000,   1.00000,
,,,-00.000006112000,   1.00000,
,,,-00.000006108000,   0.88000,
,,,-00.000006104000,   0.96000,
,,,-00.000006100000,   0.88000,
,,,-00.000006096000,   0.92000,
,,,-00.000006092000,   0.88000,
,,,-00.000006088000,   0.84000,
,,,-00.000006084000,   0.76000,
,,,-00.000006080000,   0.80000,
,,,-00.000006076000,   0.72000,
,,,-00.000006072000,   0.68000,
,,,-00.000006068000,   0.72000,
,,,-00.000006064000,   0.64000,
,,,-00.000006060000,   0.60000,
,,,-00.000006056000,   0.60000,
,,,-00.000006052000,   0.60000,
,,,-00.000006048000,   0.52000,
,,,-00.000006044000,   0.48000,
,,,-00.000006040000,   0.48000,
,,,-00.000006036000,   0.48000,
,,,-00.000006032000,   0.44000,
,,,-00.000006028000,   0.32000,
,,,-00.000006024000,   0.32000,
,,,-00.000006020000,   0.32000,
,,,-00.000006016000,   0.32000,
,,,-00.000006012000,   0.24000,
,,,-00.000006008000,   0.24000,
,,,-00.000006004000,   0.16000,
,,,-00.000006000000,   0.16000,
,,,-00.000005996000,   0.12000,
,,,-00.000005992000,   0.12000,
,,,-00.000005988000,   0.08000,
,,,-00.000005984000,   0.00000,
,,,-00.000005980000,   0.00000,
,,,-00.000005976000,  -0.04000,
,,,-00.000005972000,  -0.04000,
,,,-00.000005968000,  -0.08000,
,,,-00.000005964000,  -0.12000,
,,,-00.000005960000,  -0.16000,
,,,-00.000005956000,  -0.16000,
,,,-00.000005952000,  -0.24000,
,,,-00.000005948000,  -0.28000,
,,,-00.000005944000,  -0.36000,
,,,-00.000005940000,  -0.32000,
,,,-00.000005936000,  -0.40000,
,,,-00.000005932000,  -0.36000,
,,,-00.000005928000,  -0.40000,
,,,-00.000005924000,  -0.44000,
,,,-00.000005920000,  -0.48000,
,,,-00.000005916000,  -0.52000,
,,,-00.000005912000,  -0.56000,
,,,-00.000005908000,  -0.60000,
,,,-00.000005904000,  -0.60000,
,,,-00.000005900000,  -0.60000,
,,,-00.000005896000,  -0.76000,
,,,-00.000005892000,  -0.72000,
,,,-00.000005888000,  -0.72000,
,,,-00.000005884000,  -0.72000,
,,,-00.000005880000,  -0.80000,
,,,-00.000005876000,  -0.80000,
,,,-00.000005872000,  -0.84000,
,,,-00.000005868000,  -0.88000,
,,,-00.000005864000,  -0.96000,
,,,-00.000005860000,  -0.92000,
,,,-00.000005856000,  -0.96000,
,,,-00.000005852000,  -1.00000,
,,,-00.000005848000,  -1.00000,
,,,-00.000005844000,  -1.04000,
,,,-00.000005840000,  -1.04000,
,,,-00.000005836000,  -1.08000,
,,,-00.000005832000,  -1.12000,
,,,-00.000005828000,  -1.12000,
,,,-00.000005824000,  -1.12000,
,,,-00.000005820000,  -1.20000,
,,,-00.000005816000,  -1.20000,
,,,-00.000005812000,  -1.24000,
,,,-00.000005808000,  -1.24000,
,,,-00.000005804000,  -1.28000,
,,,-00.000005800000,  -1.32000,
,,,-00.000005796000,  -1.28000,
,,,-00.000005792000,  -1.36000,
,,,-00.000005788000,  -1.32000,
,,,-00.000005784000,  -1.36000,
,,,-00.000005780000,  -1.36000,
,,,-00.000005776000,  -1.36000,
,,,-00.000005772000,  -1.40000,
,,,-00.000005768000,  -1.40000,
,,,-00.000005764000,  -1.40000,
,,,-00.000005760000,  -1.40000,
,,,-00.000005756000,  -1.44000,
,,,-00.000005752000,  -1.44000,
,,,-00.000005748000,  -1.52000,
,,,-00.000005744000,  -1.48000,
,,,-00.000005740000,  -1.48000,
,,,-00.000005736000,  -1.48000,
,,,-00.000005732000,  -1.52000,
,,,-00.000005728000,  -1.52000,
,,,-00.000005724000,  -1.52000,
,,,-00.000005720000,  -1.48000,
,,,-00.000005716000,  -1.52000,
,,,-00.000005712000,  -1.48000,
,,,-00.000005708000,  -1.52000,
,,,-00.000005704000,  -1.52000,
,,,-00.000005700000,  -1.52000,
,,,-00.000005696000,  -1.48000,
,,,-00.000005692000,  -1.52000,
,,,-00.000005688000,  -1.48000,
,,,-00.000005684000,  -1.44000,
,,,-00.000005680000,  -1.44000,
,,,-00.000005676000,  -1.40000,
,,,-00.000005672000,  -1.40000,
,,,-00.000005668000,  -1.44000,
,,,-00.000005664000,  -1.44000,
,,,-00.000005660000,  -1.40000,
,,,-00.000005656000,  -1.36000,
,,,-00.000005652000,  -1.36000,
,,,-00.000005648000,  -1.36000,
,,,-00.000005644000,  -1.28000,
,,,-00.000005640000,  -1.28000,
,,,-00.000005636000,  -1.24000,
,,,-00.000005632000,  -1.32000,
,,,-00.000005628000,  -1.24000,
,,,-00.000005624000,  -1.24000,
,,,-00.000005620000,  -1.24000,
,,,-00.000005616000,  -1.16000,
,,,-00.000005612000,  -1.16000,
,,,-00.000005608000,  -1.16000,
,,,-00.000005604000,  -1.12000,
,,,-00.000005600000,  -1.08000,
,,,-00.000005596000,  -1.08000,
,,,-00.000005592000,  -1.04000,
,,,-00.000005588000,  -1.04000,
,,,-00.000005584000,  -1.00000,
,,,-00.000005580000,  -1.00000,
,,,-00.000005576000,  -0.96000,
,,,-00.000005572000,  -0.92000,
,,,-00.000005568000,  -0.92000,
,,,-00.000005564000,  -0.88000,
,,,-00.000005560000,  -0.88000,
,,,-00.000005556000,  -0.88000,
,,,-00.000005552000,  -0.76000,
,,,-00.000005548000,  -0.76000,
,,,-00.000005544000,  -0.72000,
,,,-00.000005540000,  -0.72000,
,,,-00.000005536000,  -0.68000,
,,,-00.000005532000,  -0.64000,
,,,-00.000005528000,  -0.64000,
,,,-00.000005524000,  -0.60000,
,,,-00.000005520000,  -0.52000,
,,,-00.000005516000,  -0.52000,
,,,-00.000005512000,  -0.52000,
,,,-00.000005508000,  -0.48000,
,,,-00.000005504000,  -0.44000,
,,,-00.000005500000,  -0.44000,
,,,-00.000005496000,  -0.36000,
,,,-00.000005492000,  -0.36000,
,,,-00.000005488000,  -0.32000,
,,,-00.000005484000,  -0.28000,
,,,-00.000005480000,  -0.24000,
,,,-00.000005476000,  -0.28000,
,,,-00.000005472000,  -0.20000,
,,,-00.000005468000,  -0.20000,
,,,-00.000005464000,  -0.20000,
,,,-00.000005460000,  -0.12000,
,,,-00.000005456000,  -0.08000,
,,,-00.000005452000,  -0.04000,
,,,-00.000005448000,   0.04000,
,,,-00.000005444000,   0.00000,
,,,-00.000005440000,   0.04000,
,,,-00.000005436000,   0.08000,
,,,-00.000005432000,   0.12000,
,,,-00.000005428000,   0.12000,
,,,-00.000005424000,   0.16000,
,,,-00.000005420000,   0.20000,
,,,-00.000005416000,   0.28000,
,,,-00.000005412000,   0.24000,
,,,-00.000005408000,   0.28000,
,,,-00.000005404000,   0.28000,
,,,-00.000005400000,   0.36000,
,,,-00.000005396000,   0.36000,
,,,-00.000005392000,   0.40000,
,,,-00.000005388000,   0.44000,
,,,-00.000005384000,   0.44000,
,,,-00.000005380000,   0.52000,
,,,-00.000005376000,   0.52000,
,,,-00.000005372000,   0.56000,
,,,-00.000005368000,   0.64000,
,,,-00.000005364000,   0.64000,
,,,-00.000005360000,   0.64000,
,,,-00.000005356000,   0.68000,
,,,-00.000005352000,   0.72000,
,,,-00.000005348000,   0.76000,
,,,-00.000005344000,   0.72000,
,,,-00.000005340000,   0.80000,
,,,-00.000005336000,   0.80000,
,,,-00.000005332000,   0.84000,
,,,-00.000005328000,   0.88000,
,,,-00.000005324000,   0.92000,
,,,-00.000005320000,   0.92000,
,,,-00.000005316000,   0.92000,
,,,-00.000005312000,   1.00000,
,,,-00.000005308000,   1.00000,
,,,-00.000005304000,   1.00000,
,,,-00.000005300000,   1.04000,
,,,-00.000005296000,   1.12000,
,,,-00.000005292000,   1.08000,
,,,-00.000005288000,   1.12000,
,,,-00.000005284000,   1.12000,
,,,-00.000005280000,   1.12000,
,,,-00.000005276000,   1.16000,
,,,-00.000005272000,   1.16000,
,,,-00.000005268000,   1.20000,
,,,-00.000005264000,   1.24000,
,,,-00.000005260000,   1.24000,
,,,-00.000005256000,   1.24000,
,,,-00.000005252000,   1.24000,
,,,-00.000005248000,   1.28000,
,,,-00.000005244000,   1.28000,
,,,-00.000005240000,   1.28000,
,,,-00.000005236000,   1.36000,
,,,-00.000005232000,   1.32000,
,,,-00.000005228000,   1.36000,
,,,-00.000005224000,   1.36000,
,,,-00.000005220000,   1.32000,
,,,-00.000005216000,   1.36000,
,,,-00.000005212000,   1.40000,
,,,-00.000005208000,   1.36000,
,,,-00.000005204000,   1.44000,
,,,-00.000005200000,   1.44000,
,,,-00.000005196000,   1.44000,
,,,-00.000005192000,   1.40000,
,,,-00.000005188000,   1.44000,
,,,-00.000005184000,   1.40000,
,,,-00.000005180000,   1.44000,
,,,-00.000005176000,   1.44000,
,,,-00.000005172000,   1.44000,
,,,-00.000005168000,   1.44000,
,,,-00.000005164000,   1.44000,
,,,-00.000005160000,   1.48000,
,,,-00.000005156000,   1.48000,
,,,-00.000005152000,   1.48000,
,,,-00.000005148000,   1.40000,
,,,-00.000005144000,   1.44000,
,,,-00.000005140000,   1.44000,
,,,-00.000005136000,   1.44000,
,,,-00.000005132000,   1.44000,
,,,-00.000005128000,   1.36000,
,,,-00.000005124000,   1.36000,
,,,-00.000005120000,   1.36000,
,,,-00.000005116000,   1.36000,
,,,-00.000005112000,   1.36000,
,,,-00.000005108000,   1.36000,
,,,-00.000005104000,   1.32000,
,,,-00.000005100000,   1.32000,
,,,-00.000005096000,   1.28000,
,,,-00.000005092000,   1.28000,
,,,-00.000005088000,   1.28000,
,,,-00.000005084000,   1.24000,
,,,-00.000005080000,   1.16000,
,,,-00.000005076000,   1.24000,
,,,-00.000005072000,   1.20000,
,,,-00.000005068000,   1.16000,
,,,-00.000005064000,   1.16000,
,,,-00.000005060000,   1.20000,
,,,-00.000005056000,   1.12000,
,,,-00.000005052000,   1.08000,
,,,-00.000005048000,   1.08000,
,,,-00.000005044000,   1.04000,
,,,-00.000005040000,   1.04000,
,,,-00.000005036000,   1.00000,
,,,-00.000005032000,   0.96000,
,,,-00.000005028000,   0.96000,
,,,-00.000005024000,   0.96000,
,,,-00.000005020000,   0.88000,
,,,-00.000005016000,   0.84000,
,,,-00.000005012000,   0.84000,
,,,-00.000005008000,   0.84000,
,,,-00.000005004000,   0.84000,
,,,-00.000005000000,   0.80000,
,,,-00.000004996000,   0.76000,
,,,-00.000004992000,   0.80000,
,,,-00.000004988000,   0.64000,
,,,-00.000004984000,   0.64000,
,,,-00.000004980000,   0.64000,
,,,-00.000004976000,   0.60000,
,,,-00.000004972000,   0.60000,
,,,-00.000004968000,   0.52000,
,,,-00.000004964000,   0.48000,
,,,-00.000004960000,   0.48000,
,,,-00.000004956000,   0.48000,
,,,-00.000004952000,   0.36000,
,,,-00.000004948000,   0.36000,
,,,-00.000004944000,   0.36000,
,,,-00.000004940000,   0.32000,
,,,-00.000004936000,   0.28000,
,,,-00.000004932000,   0.28000,
,,,-00.000004928000,   0.24000,
,,,-00.000004924000,   0.24000,
,,,-00.000004920000,   0.20000,
,,,-00.000004916000,   0.16000,
,,,-00.000004912000,   0.12000,
,,,-00.000004908000,   0.08000,
,,,-00.000004904000,   0.08000,
,,,-00.000004900000,   0.04000,
,,,-00.000004896000,   0.00000,
,,,-00.000004892000,  -0.04000,
,,,-00.000004888000,  -0.04000,
,,,-00.000004884000,  -0.08000,
,,,-00.000004880000,  -0.12000,
,,,-00.000004876000,  -0.20000,
,,,-00.000004872000,  -0.20000,
,,,-00.000004868000,  -0.24000,
,,,-00.000004864000,  -0.24000,
,,,-00.000004860000,  -0.32000,
,,,-00.000004856000,  -0.36000,
,,,-00.000004852000,  -0.36000,
,,,-00.000004848000,  -0.36000,
,,,-00.000004844000,  -0.40000,
,,,-00.000004840000,  -0.48000,
,,,-00.000004836000,  -0.52000,
,,,-00.000004832000,  -0.52000,
,,,-00.000004828000,  -0.60000,
,,,-00.000004824000,  -0.60000,
,,,-00.000004820000,  -0.64000,
,,,-00.000004816000,  -0.64000,
,,,-00.000004812000,  -0.72000,
,,,-00.000004808000,  -0.72000,
,,,-00.000004804000,  -0.76000,
,,,-00.000004800000,  -0.76000,
,,,-00.000004796000,  -0.80000,
,,,-00.000004792000,  -0.88000,
,,,-00.000004788000,  -0.88000,
,,,-00.000004784000,  -0.92000,
,,,-00.000004780000,  -0.92000,
,,,-00.000004776000,  -0.92000,
,,,-00.000004772000,  -0.96000,
,,,-00.000004768000,  -0.96000,
,,,-00.000004764000,  -1.04000,
,,,-00.000004760000,  -1.00000,
,,,-00.000004756000,  -1.08000,
,,,-00.000004752000,  -1.12000,
,,,-00.000004748000,  -1.12000,
,,,-00.000004744000,  -1.16000,
,,,-00.000004740000,  -1.12000,
,,,-00.000004736000,  -1.20000,
,,,-00.000004732000,  -1.24000,
,,,-00.000004728000,  -1.20000,
,,,-00.000004724000,  -1.28000,
,,,-00.000004720000,  -1.24000,
,,,-00.000004716000,  -1.28000,
,,,-00.000004712000,  -1.32000,
,,,-00.000004708000,  -1.28000,
,,,-00.000004704000,  -1.32000,
,,,-00.000004700000,  -1.40000,
,,,-00.000004696000,  -1.36000,
,,,-00.000004692000,  -1.36000,
,,,-00.000004688000,  -1.40000,
,,,-00.000004684000,  -1.44000,
,,,-00.000004680000,  -1.44000,
,,,-00.000004676000,  -1.44000,
,,,-00.000004672000,  -1.44000,
,,,-00.000004668000,  -1.44000,
,,,-00.000004664000,  -1.44000,
,,,-00.000004660000,  -1.44000,
,,,-00.000004656000,  -1.44000,
,,,-00.000004652000,  -1.48000,
,,,-00.000004648000,  -1.52000,
,,,-00.000004644000,  -1.48000,
,,,-00.000004640000,  -1.52000,
,,,-00.000004636000,  -1.56000,
,,,-00.000004632000,  -1.52000,
,,,-00.000004628000,  -1.48000,
,,,-00.000004624000,  -1.52000,
,,,-00.000004620000,  -1.48000,
,,,-00.000004616000,  -1.48000,
,,,-00.000004612000,  -1.52000,
,,,-00.000004608000,  -1.48000,
,,,-00.000004604000,  -1.48000,
,,,-00.000004600000,  -1.48000,
,,,-00.000004596000,  -1.48000,
,,,-00.000004592000,  -1.44000,
,,,-00.000004588000,  -1.40000,
,,,-00.000004584000,  -1.40000,
,,,-00.000004580000,  -1.40000,
,,,-00.000004576000,  -1.36000,
,,,-00.000004572000,  -1.36000,
,,,-00.000004568000,  -1.36000,
,,,-00.000004564000,  -1.36000,
,,,-00.000004560000,  -1.36000,
,,,-00.000004556000,  -1.32000,
,,,-00.000004552000,  -1.28000,
,,,-00.000004548000,  -1.28000,
,,,-00.000004544000,  -1.24000,
,,,-00.000004540000,  -1.20000,
,,,-00.000004536000,  -1.20000,
,,,-00.000004532000,  -1.20000,
,,,-00.000004528000,  -1.16000,
,,,-00.000004524000,  -1.16000,
,,,-00.000004520000,  -1.12000,
,,,-00.000004516000,  -1.08000,
,,,-00.000004512000,  -1.12000,
,,,-00.000004508000,  -1.08000,
,,,-00.000004504000,  -1.08000,
,,,-00.000004500000,  -0.96000,
,,,-00.000004496000,  -0.96000,
,,,-00.000004492000,  -1.00000,
,,,-00.000004488000,  -0.96000,
,,,-00.000004484000,  -0.92000,
,,,-00.000004480000,  -0.88000,
,,,-00.000004476000,  -0.88000,
,,,-00.000004472000,  -0.84000,
,,,-00.000004468000,  -0.80000,
,,,-00.000004464000,  -0.80000,
,,,-00.000004460000,  -0.72000,
,,,-00.000004456000,  -0.72000,
,,,-00.000004452000,  -0.68000,
,,,-00.000004448000,  -0.68000,
,,,-00.000004444000,  -0.64000,
,,,-00.000004440000,  -0.60000,
,,,-00.000004436000,  -0.60000,
,,,-00.000004432000,  -0.60000,
,,,-00.000004428000,  -0.52000,
,,,-00.000004424000,  -0.48000,
,,,-00.000004420000,  -0.44000,
,,,-00.000004416000,  -0.40000,
,,,-00.000004412000,  -0.36000,
,,,-00.000004408000,  -0.36000,
,,,-00.000004404000,  -0.32000,
,,,-00.000004400000,  -0.28000,
,,,-00.000004396000,  -0.24000,
,,,-00.000004392000,  -0.20000,
,,,-00.000004388000,  -0.16000,
,,,-00.000004384000,  -0.16000,
,,,-00.000004380000,  -0.12000,
,,,-00.000004376000,  -0.08000,
,,,-00.000004372000,  -0.04000,
,,,-00.000004368000,  -0.04000,
,,,-00.000004364000,   0.04000,
,,,-00.000004360000,   0.00000,
,,,-00.000004356000,   0.08000,
,,,-00.000004352000,   0.08000,
,,,-00.000004348000,   0.12000,
,,,-00.000004344000,   0.16000,
,,,-00.000004340000,   0.20000,
,,,-00.000004336000,   0.20000,
,,,-00.000004332000,   0.24000,
,,,-00.000004328000,   0.28000,
,,,-00.000004324000,   0.32000,
,,,-00.000004320000,   0.36000,
,,,-00.000004316000,   0.36000,
,,,-00.000004312000,   0.44000,
,,,-00.000004308000,   0.48000,
,,,-00.000004304000,   0.48000,
,,,-00.000004300000,   0.52000,
,,,-00.000004296000,   0.56000,
,,,-00.000004292000,   0.56000,
,,,-00.000004288000,   0.56000,
,,,-00.000004284000,   0.60000,
,,,-00.000004280000,   0.60000,
,,,-00.000004276000,   0.64000,
,,,-00.000004272000,   0.72000,
,,,-00.000004268000,   0.72000,
,,,-00.000004264000,   0.72000,
,,,-00.000004260000,   0.80000,
,,,-00.000004256000,   0.80000,
,,,-00.000004252000,   0.80000,
,,,-00.000004248000,   0.84000,
,,,-00.000004244000,   0.84000,
,,,-00.000004240000,   0.88000,
,,,-00.000004236000,   0.96000,
,,,-00.000004232000,   0.92000,
,,,-00.000004228000,   0.96000,
,,,-00.000004224000,   0.96000,
,,,-00.000004220000,   1.04000,
,,,-00.000004216000,   1.04000,
,,,-00.000004212000,   1.08000,
,,,-00.000004208000,   1.12000,
,,,-00.000004204000,   1.16000,
,,,-00.000004200000,   1.08000,
,,,-00.000004196000,   1.16000,
,,,-00.000004192000,   1.16000,
,,,-00.000004188000,   1.20000,
,,,-00.000004184000,   1.20000,
,,,-00.000004180000,   1.24000,
,,,-00.000004176000,   1.24000,
,,,-00.000004172000,   1.24000,
,,,-00.000004168000,   1.24000,
,,,-00.000004164000,   1.24000,
,,,-00.000004160000,   1.32000,
,,,-00.000004156000,   1.32000,
,,,-00.000004152000,   1.32000,
,,,-00.000004148000,   1.36000,
,,,-00.000004144000,   1.36000,
,,,-00.000004140000,   1.36000,
,,,-00.000004136000,   1.40000,
,,,-00.000004132000,   1.36000,
,,,-00.000004128000,   1.40000,
,,,-00.000004124000,   1.40000,
,,,-00.000004120000,   1.44000,
,,,-00.000004116000,   1.44000,
,,,-00.000004112000,   1.48000,
,,,-00.000004108000,   1.40000,
,,,-00.000004104000,   1.44000,
,,,-00.000004100000,   1.44000,
,,,-00.000004096000,   1.44000,
,,,-00.000004092000,   1.44000,
,,,-00.000004088000,   1.44000,
,,,-00.000004084000,   1.44000,
,,,-00.000004080000,   1.48000,
,,,-00.000004076000,   1.48000,
,,,-00.000004072000,   1.44000,
,,,-00.000004068000,   1.44000,
,,,-00.000004064000,   1.48000,
,,,-00.000004060000,   1.44000,
,,,-00.000004056000,   1.44000,
,,,-00.000004052000,   1.48000,
,,,-00.000004048000,   1.40000,
,,,-00.000004044000,   1.44000,
,,,-00.000004040000,   1.40000,
,,,-00.000004036000,   1.40000,
,,,-00.000004032000,   1.32000,
,,,-00.000004028000,   1.36000,
,,,-00.000004024000,   1.28000,
,,,-00.000004020000,   1.32000,
,,,-00.000004016000,   1.36000,
,,,-00.000004012000,   1.24000,
,,,-00.000004008000,   1.28000,
,,,-00.000004004000,   1.28000,
,,,-00.000004000000,   1.24000,
,,,-00.000003996000,   1.16000,
,,,-00.000003992000,   1.20000,
,,,-00.000003988000,   1.20000,
,,,-00.000003984000,   1.16000,
,,,-00.000003980000,   1.16000,
,,,-00.000003976000,   1.12000,
,,,-00.000003972000,   1.08000,
,,,-00.000003968000,   1.08000,
,,,-00.000003964000,   1.08000,
,,,-00.000003960000,   1.04000,
,,,-00.000003956000,   1.04000,
,,,-00.000003952000,   1.00000,
,,,-00.000003948000,   1.00000,
