measurements/D1002969_transimpedence/259/time_out_259.CSV

Record Length,2.500000e+03,,  -0.000000025000,  -0.64000,
Sample Interval,2.000000e-11,,  -0.000000024980,  -0.60000,
Trigger Point,1.250000000000e+03,,  -0.000000024960,  -0.60000,
,,,  -0.000000024940,  -0.56000,
,,,  -0.000000024920,  -0.56000,
,,,  -0.000000024900,  -0.52000,
Source,CH2,,  -0.000000024880,  -0.52000,
Vertical Units,V,,  -0.000000024860,  -0.48000,
Vertical Scale,1.000000e+00,,  -0.000000024840,  -0.44000,
Vertical Offset,0.000000e+00,,  -0.000000024820,  -0.44000,
Horizontal Units,s,,  -0.000000024800,  -0.40000,
Horizontal Scale,5.000000e-09,,  -0.000000024780,  -0.40000,
Pt Fmt,Y,,  -0.000000024760,  -0.36000,
Yzero,0.000000e+00,,  -0.000000024740,  -0.32000,
Probe Atten,1.000000e+01,,  -0.000000024720,  -0.32000,
Model Number,TBS1154,,  -0.000000024700,  -0.28000,
Serial Number,C020573,,  -0.000000024680,  -0.24000,
Firmware Version,FV:v26.05,,  -0.000000024660,  -0.24000,
,,,-00.000000024640,  -0.20000,
,,,-00.000000024620,  -0.20000,
,,,-00.000000024600,  -0.16000,
,,,-00.000000024580,  -0.12000,
,,,-00.000000024560,  -0.12000,
,,,-00.000000024540,  -0.08000,
,,,-00.000000024520,  -0.04000,
,,,-00.000000024500,  -0.04000,
,,,-00.000000024480,   0.00000,
,,,-00.000000024460,   0.04000,
,,,-00.000000024440,   0.04000,
,,,-00.000000024420,   0.08000,
,,,-00.000000024400,   0.12000,
,,,-00.000000024380,   0.12000,
,,,-00.000000024360,   0.16000,
,,,-00.000000024340,   0.20000,
,,,-00.000000024320,   0.20000,
,,,-00.000000024300,   0.24000,
,,,-00.000000024280,   0.24000,
,,,-00.000000024260,   0.28000,
,,,-00.000000024240,   0.32000,
,,,-00.000000024220,   0.32000,
,,,-00.000000024200,   0.36000,
,,,-00.000000024180,   0.40000,
,,,-00.000000024160,   0.40000,
,,,-00.000000024140,   0.44000,
,,,-00.000000024120,   0.44000,
,,,-00.000000024100,   0.48000,
,,,-00.000000024080,   0.52000,
,,,-00.000000024060,   0.52000,
,,,-00.000000024040,   0.56000,
,,,-00.000000024020,   0.56000,
,,,-00.000000024000,   0.60000,
,,,-00.000000023980,   0.60000,
,,,-00.000000023960,   0.64000,
,,,-00.000000023940,   0.68000,
,,,-00.000000023920,   0.68000,
,,,-00.000000023900,   0.72000,
,,,-00.000000023880,   0.72000,
,,,-00.000000023860,   0.76000,
,,,-00.000000023840,   0.76000,
,,,-00.000000023820,   0.80000,
,,,-00.000000023800,   0.80000,
,,,-00.000000023780,   0.84000,
,,,-00.000000023760,   0.84000,
,,,-00.000000023740,   0.88000,
,,,-00.000000023720,   0.88000,
,,,-00.000000023700,   0.92000,
,,,-00.000000023680,   0.92000,
,,,-00.000000023660,   0.96000,
,,,-00.000000023640,   0.96000,
,,,-00.000000023620,   0.96000,
,,,-00.000000023600,   1.00000,
,,,-00.000000023580,   1.00000,
,,,-00.000000023560,   1.04000,
,,,-00.000000023540,   1.04000,
,,,-00.000000023520,   1.08000,
,,,-00.000000023500,   1.08000,
,,,-00.000000023480,   1.08000,
,,,-00.000000023460,   1.12000,
,,,-00.000000023440,   1.12000,
,,,-00.000000023420,   1.12000,
,,,-00.000000023400,   1.16000,
,,,-00.000000023380,   1.16000,
,,,-00.000000023360,   1.16000,
,,,-00.000000023340,   1.20000,
,,,-00.000000023320,   1.20000,
,,,-00.000000023300,   1.20000,
,,,-00.000000023280,   1.24000,
,,,-00.000000023260,   1.24000,
,,,-00.000000023240,   1.24000,
,,,-00.000000023220,   1.24000,
,,,-00.000000023200,   1.28000,
,,,-00.000000023180,   1.28000,
,,,-00.000000023160,   1.28000,
,,,-00.000000023140,   1.28000,
,,,-00.000000023120,   1.28000,
,,,-00.000000023100,   1.32000,
,,,-00.000000023080,   1.32000,
,,,-00.000000023060,   1.32000,
,,,-00.000000023040,   1.32000,
,,,-00.000000023020,   1.32000,
,,,-00.000000023000,   1.32000,
,,,-00.000000022980,   1.32000,
,,,-00.000000022960,   1.36000,
,,,-00.000000022940,   1.36000,
,,,-00.000000022920,   1.36000,
,,,-00.000000022900,   1.36000,
,,,-00.000000022880,   1.36000,
,,,-00.000000022860,   1.36000,
,,,-00.000000022840,   1.36000,
,,,-00.000000022820,   1.36000,
,,,-00.000000022800,   1.36000,
,,,-00.000000022780,   1.36000,
,,,-00.000000022760,   1.36000,
,,,-00.000000022740,   1.36000,
,,,-00.000000022720,   1.32000,
,,,-00.000000022700,   1.32000,
,,,-00.000000022680,   1.32000,
,,,-00.000000022660,   1.32000,
,,,-00.000000022640,   1.32000,
,,,-00.000000022620,   1.32000,
,,,-00.000000022600,   1.32000,
,,,-00.000000022580,   1.32000,
,,,-00.000000022560,   1.28000,
,,,-00.000000022540,   1.28000,
,,,-00.000000022520,   1.28000,
,,,-00.000000022500,   1.28000,
,,,-00.000000022480,   1.28000,
,,,-00.000000022460,   1.28000,
,,,-00.000000022440,   1.24000,
,,,-00.000000022420,   1.24000,
,,,-00.000000022400,   1.24000,
,,,-00.000000022380,   1.24000,
,,,-00.000000022360,   1.20000,
,,,-00.000000022340,   1.20000,
,,,-00.000000022320,   1.20000,
,,,-00.000000022300,   1.20000,
,,,-00.000000022280,   1.16000,
,,,-00.000000022260,   1.16000,
,,,-00.000000022240,   1.16000,
,,,-00.000000022220,   1.12000,
,,,-00.000000022200,   1.12000,
,,,-00.000000022180,   1.08000,
,,,-00.000000022160,   1.08000,
,,,-00.000000022140,   1.08000,
,,,-00.000000022120,   1.04000,
,,,-00.000000022100,   1.04000,
,,,-00.000000022080,   1.04000,
,,,-00.000000022060,   1.00000,
,,,-00.000000022040,   1.00000,
,,,-00.000000022020,   0.96000,
,,,-00.000000022000,   0.96000,
,,,-00.000000021980,   0.92000,
,,,-00.000000021960,   0.92000,
,,,-00.000000021940,   0.92000,
,,,-00.000000021920,   0.88000,
,,,-00.000000021900,   0.88000,
,,,-00.000000021880,   0.84000,
,,,-00.000000021860,   0.84000,
,,,-00.000000021840,   0.80000,
,,,-00.000000021820,   0.80000,
,,,-00.000000021800,   0.76000,
,,,-00.000000021780,   0.76000,
,,,-00.000000021760,   0.72000,
,,,-00.000000021740,   0.72000,
,,,-00.000000021720,   0.68000,
,,,-00.000000021700,   0.68000,
,,,-00.000000021680,   0.64000,
,,,-00.000000021660,   0.60000,
,,,-00.000000021640,   0.60000,
,,,-00.000000021620,   0.56000,
,,,-00.000000021600,   0.56000,
,,,-00.000000021580,   0.52000,
,,,-00.000000021560,   0.52000,
,,,-00.000000021540,   0.48000,
,,,-00.000000021520,   0.44000,
,,,-00.000000021500,   0.44000,
,,,-00.000000021480,   0.40000,
,,,-00.000000021460,   0.40000,
,,,-00.000000021440,   0.36000,
,,,-00.000000021420,   0.32000,
,,,-00.000000021400,   0.32000,
,,,-00.000000021380,   0.28000,
,,,-00.000000021360,   0.28000,
,,,-00.000000021340,   0.24000,
,,,-00.000000021320,   0.20000,
,,,-00.000000021300,   0.20000,
,,,-00.000000021280,   0.16000,
,,,-00.000000021260,   0.16000,
,,,-00.000000021240,   0.12000,
,,,-00.000000021220,   0.08000,
,,,-00.000000021200,   0.08000,
,,,-00.000000021180,   0.04000,
,,,-00.000000021160,   0.00000,
,,,-00.000000021140,   0.00000,
,,,-00.000000021120,  -0.04000,
,,,-00.000000021100,  -0.04000,
,,,-00.000000021080,  -0.08000,
,,,-00.000000021060,  -0.12000,
,,,-00.000000021040,  -0.12000,
,,,-00.000000021020,  -0.16000,
,,,-00.000000021000,  -0.16000,
,,,-00.000000020980,  -0.20000,
,,,-00.000000020960,  -0.24000,
,,,-00.000000020940,  -0.24000,
,,,-00.000000020920,  -0.28000,
,,,-00.000000020900,  -0.32000,
,,,-00.000000020880,  -0.32000,
,,,-00.000000020860,  -0.36000,
,,,-00.000000020840,  -0.36000,
,,,-00.000000020820,  -0.40000,
,,,-00.000000020800,  -0.44000,
,,,-00.000000020780,  -0.44000,
,,,-00.000000020760,  -0.48000,
,,,-00.000000020740,  -0.48000,
,,,-00.000000020720,  -0.52000,
,,,-00.000000020700,  -0.52000,
,,,-00.000000020680,  -0.56000,
,,,-00.000000020660,  -0.60000,
,,,-00.000000020640,  -0.60000,
,,,-00.000000020620,  -0.64000,
,,,-00.000000020600,  -0.64000,
,,,-00.000000020580,  -0.68000,
,,,-00.000000020560,  -0.68000,
,,,-00.000000020540,  -0.72000,
,,,-00.000000020520,  -0.72000,
,,,-00.000000020500,  -0.76000,
,,,-00.000000020480,  -0.76000,
,,,-00.000000020460,  -0.80000,
,,,-00.000000020440,  -0.80000,
,,,-00.000000020420,  -0.84000,
,,,-00.000000020400,  -0.84000,
,,,-00.000000020380,  -0.88000,
,,,-00.000000020360,  -0.88000,
,,,-00.000000020340,  -0.92000,
,,,-00.000000020320,  -0.92000,
,,,-00.000000020300,  -0.96000,
,,,-00.000000020280,  -0.96000,
,,,-00.000000020260,  -1.00000,
,,,-00.000000020240,  -1.00000,
,,,-00.000000020220,  -1.00000,
,,,-00.000000020200,  -1.04000,
,,,-00.000000020180,  -1.04000,
,,,-00.000000020160,  -1.08000,
,,,-00.000000020140,  -1.08000,
,,,-00.000000020120,  -1.08000,
,,,-00.000000020100,  -1.12000,
,,,-00.000000020080,  -1.12000,
,,,-00.000000020060,  -1.16000,
,,,-00.000000020040,  -1.16000,
,,,-00.000000020020,  -1.16000,
,,,-00.000000020000,  -1.16000,
,,,-00.000000019980,  -1.20000,
,,,-00.000000019960,  -1.20000,
,,,-00.000000019940,  -1.20000,
,,,-00.000000019920,  -1.24000,
,,,-00.000000019900,  -1.24000,
,,,-00.000000019880,  -1.24000,
,,,-00.000000019860,  -1.24000,
,,,-00.000000019840,  -1.28000,
,,,-00.000000019820,  -1.28000,
,,,-00.000000019800,  -1.28000,
,,,-00.000000019780,  -1.28000,
,,,-00.000000019760,  -1.28000,
,,,-00.000000019740,  -1.28000,
,,,-00.000000019720,  -1.28000,
,,,-00.000000019700,  -1.32000,
,,,-00.000000019680,  -1.32000,
,,,-00.000000019660,  -1.32000,
,,,-00.000000019640,  -1.32000,
,,,-00.000000019620,  -1.32000,
,,,-00.000000019600,  -1.32000,
,,,-00.000000019580,  -1.32000,
,,,-00.000000019560,  -1.32000,
,,,-00.000000019540,  -1.32000,
,,,-00.000000019520,  -1.32000,
,,,-00.000000019500,  -1.32000,
,,,-00.000000019480,  -1.32000,
,,,-00.000000019460,  -1.32000,
,,,-00.000000019440,  -1.32000,
,,,-00.000000019420,  -1.32000,
,,,-00.000000019400,  -1.32000,
,,,-00.000000019380,  -1.32000,
,,,-00.000000019360,  -1.32000,
,,,-00.000000019340,  -1.32000,
,,,-00.000000019320,  -1.32000,
,,,-00.000000019300,  -1.32000,
,,,-00.000000019280,  -1.32000,
,,,-00.000000019260,  -1.32000,
,,,-00.000000019240,  -1.28000,
,,,-00.000000019220,  -1.28000,
,,,-00.000000019200,  -1.28000,
,,,-00.000000019180,  -1.28000,
,,,-00.000000019160,  -1.28000,
,,,-00.000000019140,  -1.28000,
,,,-00.000000019120,  -1.28000,
,,,-00.000000019100,  -1.24000,
,,,-00.000000019080,  -1.24000,
,,,-00.000000019060,  -1.24000,
,,,-00.000000019040,  -1.24000,
,,,-00.000000019020,  -1.20000,
,,,-00.000000019000,  -1.20000,
,,,-00.000000018980,  -1.20000,
,,,-00.000000018960,  -1.20000,
,,,-00.000000018940,  -1.16000,
,,,-00.000000018920,  -1.16000,
,,,-00.000000018900,  -1.16000,
,,,-00.000000018880,  -1.12000,
,,,-00.000000018860,  -1.12000,
,,,-00.000000018840,  -1.12000,
,,,-00.000000018820,  -1.08000,
,,,-00.000000018800,  -1.08000,
,,,-00.000000018780,  -1.08000,
,,,-00.000000018760,  -1.04000,
,,,-00.000000018740,  -1.04000,
,,,-00.000000018720,  -1.04000,
,,,-00.000000018700,  -1.00000,
,,,-00.000000018680,  -1.00000,
,,,-00.000000018660,  -0.96000,
,,,-00.000000018640,  -0.96000,
,,,-00.000000018620,  -0.96000,
,,,-00.000000018600,  -0.92000,
,,,-00.000000018580,  -0.92000,
,,,-00.000000018560,  -0.88000,
,,,-00.000000018540,  -0.88000,
,,,-00.000000018520,  -0.84000,
,,,-00.000000018500,  -0.84000,
,,,-00.000000018480,  -0.80000,
,,,-00.000000018460,  -0.80000,
,,,-00.000000018440,  -0.76000,
,,,-00.000000018420,  -0.76000,
,,,-00.000000018400,  -0.72000,
,,,-00.000000018380,  -0.72000,
,,,-00.000000018360,  -0.68000,
,,,-00.000000018340,  -0.68000,
,,,-00.000000018320,  -0.64000,
,,,-00.000000018300,  -0.64000,
,,,-00.000000018280,  -0.60000,
,,,-00.000000018260,  -0.60000,
,,,-00.000000018240,  -0.56000,
,,,-00.000000018220,  -0.52000,
,,,-00.000000018200,  -0.52000,
,,,-00.000000018180,  -0.48000,
,,,-00.000000018160,  -0.48000,
,,,-00.000000018140,  -0.44000,
,,,-00.000000018120,  -0.44000,
,,,-00.000000018100,  -0.40000,
,,,-00.000000018080,  -0.36000,
,,,-00.000000018060,  -0.36000,
,,,-00.000000018040,  -0.32000,
,,,-00.000000018020,  -0.32000,
,,,-00.000000018000,  -0.28000,
,,,-00.000000017980,  -0.28000,
,,,-00.000000017960,  -0.24000,
,,,-00.000000017940,  -0.20000,
,,,-00.000000017920,  -0.20000,
,,,-00.000000017900,  -0.16000,
,,,-00.000000017880,  -0.16000,
,,,-00.000000017860,  -0.12000,
,,,-00.000000017840,  -0.08000,
,,,-00.000000017820,  -0.08000,
,,,-00.000000017800,  -0.04000,
,,,-00.000000017780,  -0.04000,
,,,-00.000000017760,   0.00000,
,,,-00.000000017740,   0.04000,
,,,-00.000000017720,   0.04000,
,,,-00.000000017700,   0.08000,
,,,-00.000000017680,   0.08000,
,,,-00.000000017660,   0.12000,
,,,-00.000000017640,   0.16000,
,,,-00.000000017620,   0.16000,
,,,-00.000000017600,   0.20000,
,,,-00.000000017580,   0.24000,
,,,-00.000000017560,   0.24000,
,,,-00.000000017540,   0.28000,
,,,-00.000000017520,   0.28000,
,,,-00.000000017500,   0.32000,
,,,-00.000000017480,   0.32000,
,,,-00.000000017460,   0.36000,
,,,-00.000000017440,   0.40000,
,,,-00.000000017420,   0.40000,
,,,-00.000000017400,   0.44000,
,,,-00.000000017380,   0.44000,
,,,-00.000000017360,   0.48000,
,,,-00.000000017340,   0.52000,
,,,-00.000000017320,   0.52000,
,,,-00.000000017300,   0.56000,
,,,-00.000000017280,   0.56000,
,,,-00.000000017260,   0.60000,
,,,-00.000000017240,   0.60000,
,,,-00.000000017220,   0.64000,
,,,-00.000000017200,   0.64000,
,,,-00.000000017180,   0.68000,
,,,-00.000000017160,   0.68000,
,,,-00.000000017140,   0.72000,
,,,-00.000000017120,   0.72000,
,,,-00.000000017100,   0.76000,
,,,-00.000000017080,   0.76000,
,,,-00.000000017060,   0.80000,
,,,-00.000000017040,   0.80000,
,,,-00.000000017020,   0.84000,
,,,-00.000000017000,   0.84000,
,,,-00.000000016980,   0.88000,
,,,-00.000000016960,   0.88000,
,,,-00.000000016940,   0.92000,
,,,-00.000000016920,   0.92000,
,,,-00.000000016900,   0.92000,
,,,-00.000000016880,   0.96000,
,,,-00.000000016860,   0.96000,
,,,-00.000000016840,   1.00000,
,,,-00.000000016820,   1.00000,
,,,-00.000000016800,   1.00000,
,,,-00.000000016780,   1.04000,
,,,-00.000000016760,   1.04000,
,,,-00.000000016740,   1.08000,
,,,-00.000000016720,   1.08000,
,,,-00.000000016700,   1.08000,
,,,-00.000000016680,   1.12000,
,,,-00.000000016660,   1.12000,
,,,-00.000000016640,   1.12000,
,,,-00.000000016620,   1.16000,
,,,-00.000000016600,   1.16000,
,,,-00.000000016580,   1.16000,
,,,-00.000000016560,   1.16000,
,,,-00.000000016540,   1.20000,
,,,-00.000000016520,   1.20000,
,,,-00.000000016500,   1.20000,
,,,-00.000000016480,   1.20000,
,,,-00.000000016460,   1.24000,
,,,-00.000000016440,   1.24000,
,,,-00.000000016420,   1.24000,
,,,-00.000000016400,   1.24000,
,,,-00.000000016380,   1.24000,
,,,-00.000000016360,   1.28000,
,,,-00.000000016340,   1.28000,
,,,-00.000000016320,   1.28000,
,,,-00.000000016300,   1.28000,
,,,-00.000000016280,   1.28000,
,,,-00.000000016260,   1.28000,
,,,-00.000000016240,   1.28000,
,,,-00.000000016220,   1.28000,
,,,-00.000000016200,   1.32000,
,,,-00.000000016180,   1.32000,
,,,-00.000000016160,   1.32000,
,,,-00.000000016140,   1.32000,
,,,-00.000000016120,   1.32000,
,,,-00.000000016100,   1.32000,
,,,-00.000000016080,   1.32000,
,,,-00.000000016060,   1.32000,
,,,-00.000000016040,   1.32000,
,,,-00.000000016020,   1.32000,
,,,-00.000000016000,   1.32000,
,,,-00.000000015980,   1.32000,
,,,-00.000000015960,   1.32000,
,,,-00.000000015940,   1.32000,
,,,-00.000000015920,   1.32000,
,,,-00.000000015900,   1.28000,
,,,-00.000000015880,   1.28000,
,,,-00.000000015860,   1.28000,
,,,-00.000000015840,   1.28000,
,,,-00.000000015820,   1.28000,
,,,-00.000000015800,   1.28000,
,,,-00.000000015780,   1.24000,
,,,-00.000000015760,   1.24000,
,,,-00.000000015740,   1.24000,
,,,-00.000000015720,   1.24000,
,,,-00.000000015700,   1.24000,
,,,-00.000000015680,   1.20000,
,,,-00.000000015660,   1.20000,
,,,-00.000000015640,   1.20000,
,,,-00.000000015620,   1.16000,
,,,-00.000000015600,   1.16000,
,,,-00.000000015580,   1.16000,
,,,-00.000000015560,   1.16000,
,,,-00.000000015540,   1.12000,
,,,-00.000000015520,   1.12000,
,,,-00.000000015500,   1.12000,
,,,-00.000000015480,   1.08000,
,,,-00.000000015460,   1.08000,
,,,-00.000000015440,   1.04000,
,,,-00.000000015420,   1.04000,
,,,-00.000000015400,   1.04000,
,,,-00.000000015380,   1.00000,
,,,-00.000000015360,   1.00000,
,,,-00.000000015340,   0.96000,
,,,-00.000000015320,   0.96000,
,,,-00.000000015300,   0.96000,
,,,-00.000000015280,   0.92000,
,,,-00.000000015260,   0.92000,
,,,-00.000000015240,   0.88000,
,,,-00.000000015220,   0.88000,
,,,-00.000000015200,   0.84000,
,,,-00.000000015180,   0.84000,
,,,-00.000000015160,   0.80000,
,,,-00.000000015140,   0.80000,
,,,-00.000000015120,   0.76000,
,,,-00.000000015100,   0.76000,
,,,-00.000000015080,   0.72000,
,,,-00.000000015060,   0.72000,
,,,-00.000000015040,   0.68000,
,,,-00.000000015020,   0.68000,
,,,-00.000000015000,   0.64000,
,,,-00.000000014980,   0.64000,
,,,-00.000000014960,   0.60000,
,,,-00.000000014940,   0.60000,
,,,-00.000000014920,   0.56000,
,,,-00.000000014900,   0.52000,
,,,-00.000000014880,   0.52000,
,,,-00.000000014860,   0.48000,
,,,-00.000000014840,   0.48000,
,,,-00.000000014820,   0.44000,
,,,-00.000000014800,   0.44000,
,,,-00.000000014780,   0.40000,
,,,-00.000000014760,   0.36000,
,,,-00.000000014740,   0.36000,
,,,-00.000000014720,   0.32000,
,,,-00.000000014700,   0.32000,
,,,-00.000000014680,   0.28000,
,,,-00.000000014660,   0.24000,
,,,-00.000000014640,   0.24000,
,,,-00.000000014620,   0.20000,
,,,-00.000000014600,   0.16000,
,,,-00.000000014580,   0.16000,
,,,-00.000000014560,   0.12000,
,,,-00.000000014540,   0.08000,
,,,-00.000000014520,   0.08000,
,,,-00.000000014500,   0.04000,
,,,-00.000000014480,   0.00000,
,,,-00.000000014460,   0.00000,
,,,-00.000000014440,  -0.04000,
,,,-00.000000014420,  -0.08000,
,,,-00.000000014400,  -0.08000,
,,,-00.000000014380,  -0.12000,
,,,-00.000000014360,  -0.12000,
,,,-00.000000014340,  -0.16000,
,,,-00.000000014320,  -0.20000,
,,,-00.000000014300,  -0.20000,
,,,-00.000000014280,  -0.24000,
,,,-00.000000014260,  -0.28000,
,,,-00.000000014240,  -0.28000,
,,,-00.000000014220,  -0.32000,
,,,-00.000000014200,  -0.36000,
,,,-00.000000014180,  -0.36000,
,,,-00.000000014160,  -0.40000,
,,,-00.000000014140,  -0.40000,
,,,-00.000000014120,  -0.44000,
,,,-00.000000014100,  -0.48000,
,,,-00.000000014080,  -0.48000,
,,,-00.000000014060,  -0.52000,
,,,-00.000000014040,  -0.52000,
,,,-00.000000014020,  -0.56000,
,,,-00.000000014000,  -0.60000,
,,,-00.000000013980,  -0.60000,
,,,-00.000000013960,  -0.64000,
,,,-00.000000013940,  -0.64000,
,,,-00.000000013920,  -0.68000,
,,,-00.000000013900,  -0.68000,
,,,-00.000000013880,  -0.72000,
,,,-00.000000013860,  -0.76000,
,,,-00.000000013840,  -0.76000,
,,,-00.000000013820,  -0.80000,
,,,-00.000000013800,  -0.80000,
,,,-00.000000013780,  -0.84000,
,,,-00.000000013760,  -0.84000,
,,,-00.000000013740,  -0.88000,
,,,-00.000000013720,  -0.88000,
,,,-00.000000013700,  -0.92000,
,,,-00.000000013680,  -0.92000,
,,,-00.000000013660,  -0.96000,
,,,-00.000000013640,  -0.96000,
,,,-00.000000013620,  -1.00000,
,,,-00.000000013600,  -1.00000,
,,,-00.000000013580,  -1.04000,
,,,-00.000000013560,  -1.04000,
,,,-00.000000013540,  -1.04000,
,,,-00.000000013520,  -1.08000,
,,,-00.000000013500,  -1.08000,
,,,-00.000000013480,  -1.08000,
,,,-00.000000013460,  -1.12000,
,,,-00.000000013440,  -1.12000,
,,,-00.000000013420,  -1.16000,
,,,-00.000000013400,  -1.16000,
,,,-00.000000013380,  -1.16000,
,,,-00.000000013360,  -1.20000,
,,,-00.000000013340,  -1.20000,
,,,-00.000000013320,  -1.20000,
,,,-00.000000013300,  -1.24000,
,,,-00.000000013280,  -1.24000,
,,,-00.000000013260,  -1.24000,
,,,-00.000000013240,  -1.28000,
,,,-00.000000013220,  -1.28000,
,,,-00.000000013200,  -1.28000,
,,,-00.000000013180,  -1.28000,
,,,-00.000000013160,  -1.32000,
,,,-00.000000013140,  -1.32000,
,,,-00.000000013120,  -1.32000,
,,,-00.000000013100,  -1.32000,
,,,-00.000000013080,  -1.32000,
,,,-00.000000013060,  -1.36000,
,,,-00.000000013040,  -1.36000,
,,,-00.000000013020,  -1.36000,
,,,-00.000000013000,  -1.36000,
,,,-00.000000012980,  -1.36000,
,,,-00.000000012960,  -1.36000,
,,,-00.000000012940,  -1.36000,
,,,-00.000000012920,  -1.36000,
,,,-00.000000012900,  -1.36000,
,,,-00.000000012880,  -1.36000,
,,,-00.000000012860,  -1.36000,
,,,-00.000000012840,  -1.40000,
,,,-00.000000012820,  -1.40000,
,,,-00.000000012800,  -1.40000,
,,,-00.000000012780,  -1.36000,
,,,-00.000000012760,  -1.36000,
,,,-00.000000012740,  -1.36000,
